program_counter/simulation/qsim/program_counter.msim.vcd
$comment
	File created using the following command:
		vcd file program_counter.msim.vcd -direction
$end
$date
	Fri Oct 27 20:06:32 2017
$end
$version
	ModelSim Version 10.5b
$end
$timescale
	1ps
$end

$scope module program_counter_vhd_vec_tst $end
$var wire 1 ! choose_pc_operation [1] $end
$var wire 1 " choose_pc_operation [0] $end
$var wire 1 # clk $end
$var wire 1 $ jump_to_address [15] $end
$var wire 1 % jump_to_address [14] $end
$var wire 1 & jump_to_address [13] $end
$var wire 1 ' jump_to_address [12] $end
$var wire 1 ( jump_to_address [11] $end
$var wire 1 ) jump_to_address [10] $end
$var wire 1 * jump_to_address [9] $end
$var wire 1 + jump_to_address [8] $end
$var wire 1 , jump_to_address [7] $end
$var wire 1 - jump_to_address [6] $end
$var wire 1 . jump_to_address [5] $end
$var wire 1 / jump_to_address [4] $end
$var wire 1 0 jump_to_address [3] $end
$var wire 1 1 jump_to_address [2] $end
$var wire 1 2 jump_to_address [1] $end
$var wire 1 3 jump_to_address [0] $end
$var wire 1 4 pc_output [15] $end
$var wire 1 5 pc_output [14] $end
$var wire 1 6 pc_output [13] $end
$var wire 1 7 pc_output [12] $end
$var wire 1 8 pc_output [11] $end
$var wire 1 9 pc_output [10] $end
$var wire 1 : pc_output [9] $end
$var wire 1 ; pc_output [8] $end
$var wire 1 < pc_output [7] $end
$var wire 1 = pc_output [6] $end
$var wire 1 > pc_output [5] $end
$var wire 1 ? pc_output [4] $end
$var wire 1 @ pc_output [3] $end
$var wire 1 A pc_output [2] $end
$var wire 1 B pc_output [1] $end
$var wire 1 C pc_output [0] $end

$scope module i1 $end
$var wire 1 D gnd $end
$var wire 1 E vcc $end
$var wire 1 F unknown $end
$var wire 1 G devoe $end
$var wire 1 H devclrn $end
$var wire 1 I devpor $end
$var wire 1 J ww_devoe $end
$var wire 1 K ww_devclrn $end
$var wire 1 L ww_devpor $end
$var wire 1 M ww_clk $end
$var wire 1 N ww_jump_to_address [15] $end
$var wire 1 O ww_jump_to_address [14] $end
$var wire 1 P ww_jump_to_address [13] $end
$var wire 1 Q ww_jump_to_address [12] $end
$var wire 1 R ww_jump_to_address [11] $end
$var wire 1 S ww_jump_to_address [10] $end
$var wire 1 T ww_jump_to_address [9] $end
$var wire 1 U ww_jump_to_address [8] $end
$var wire 1 V ww_jump_to_address [7] $end
$var wire 1 W ww_jump_to_address [6] $end
$var wire 1 X ww_jump_to_address [5] $end
$var wire 1 Y ww_jump_to_address [4] $end
$var wire 1 Z ww_jump_to_address [3] $end
$var wire 1 [ ww_jump_to_address [2] $end
$var wire 1 \ ww_jump_to_address [1] $end
$var wire 1 ] ww_jump_to_address [0] $end
$var wire 1 ^ ww_choose_pc_operation [1] $end
$var wire 1 _ ww_choose_pc_operation [0] $end
$var wire 1 ` ww_pc_output [15] $end
$var wire 1 a ww_pc_output [14] $end
$var wire 1 b ww_pc_output [13] $end
$var wire 1 c ww_pc_output [12] $end
$var wire 1 d ww_pc_output [11] $end
$var wire 1 e ww_pc_output [10] $end
$var wire 1 f ww_pc_output [9] $end
$var wire 1 g ww_pc_output [8] $end
$var wire 1 h ww_pc_output [7] $end
$var wire 1 i ww_pc_output [6] $end
$var wire 1 j ww_pc_output [5] $end
$var wire 1 k ww_pc_output [4] $end
$var wire 1 l ww_pc_output [3] $end
$var wire 1 m ww_pc_output [2] $end
$var wire 1 n ww_pc_output [1] $end
$var wire 1 o ww_pc_output [0] $end
$var wire 1 p \clk~inputclkctrl_INCLK_bus\ [3] $end
$var wire 1 q \clk~inputclkctrl_INCLK_bus\ [2] $end
$var wire 1 r \clk~inputclkctrl_INCLK_bus\ [1] $end
$var wire 1 s \clk~inputclkctrl_INCLK_bus\ [0] $end
$var wire 1 t \pc_output[0]~output_o\ $end
$var wire 1 u \pc_output[1]~output_o\ $end
$var wire 1 v \pc_output[2]~output_o\ $end
$var wire 1 w \pc_output[3]~output_o\ $end
$var wire 1 x \pc_output[4]~output_o\ $end
$var wire 1 y \pc_output[5]~output_o\ $end
$var wire 1 z \pc_output[6]~output_o\ $end
$var wire 1 { \pc_output[7]~output_o\ $end
$var wire 1 | \pc_output[8]~output_o\ $end
$var wire 1 } \pc_output[9]~output_o\ $end
$var wire 1 ~ \pc_output[10]~output_o\ $end
$var wire 1 !! \pc_output[11]~output_o\ $end
$var wire 1 "! \pc_output[12]~output_o\ $end
$var wire 1 #! \pc_output[13]~output_o\ $end
$var wire 1 $! \pc_output[14]~output_o\ $end
$var wire 1 %! \pc_output[15]~output_o\ $end
$var wire 1 &! \clk~input_o\ $end
$var wire 1 '! \clk~inputclkctrl_outclk\ $end
$var wire 1 (! \jump_to_address[0]~input_o\ $end
$var wire 1 )! \choose_pc_operation[1]~input_o\ $end
$var wire 1 *! \Add0~0_combout\ $end
$var wire 1 +! \current_pc[0]~16_combout\ $end
$var wire 1 ,! \choose_pc_operation[0]~input_o\ $end
$var wire 1 -! \current_pc[8]~18_combout\ $end
$var wire 1 .! \jump_to_address[1]~input_o\ $end
$var wire 1 /! \Add0~1_combout\ $end
$var wire 1 0! \current_pc[0]~17\ $end
$var wire 1 1! \current_pc[1]~19_combout\ $end
$var wire 1 2! \jump_to_address[2]~input_o\ $end
$var wire 1 3! \Add0~2_combout\ $end
$var wire 1 4! \current_pc[1]~20\ $end
$var wire 1 5! \current_pc[2]~21_combout\ $end
$var wire 1 6! \jump_to_address[3]~input_o\ $end
$var wire 1 7! \Add0~3_combout\ $end
$var wire 1 8! \current_pc[2]~22\ $end
$var wire 1 9! \current_pc[3]~23_combout\ $end
$var wire 1 :! \jump_to_address[4]~input_o\ $end
$var wire 1 ;! \Add0~4_combout\ $end
$var wire 1 <! \current_pc[3]~24\ $end
$var wire 1 =! \current_pc[4]~25_combout\ $end
$var wire 1 >! \jump_to_address[5]~input_o\ $end
$var wire 1 ?! \Add0~5_combout\ $end
$var wire 1 @! \current_pc[4]~26\ $end
$var wire 1 A! \current_pc[5]~27_combout\ $end
$var wire 1 B! \jump_to_address[6]~input_o\ $end
$var wire 1 C! \Add0~6_combout\ $end
$var wire 1 D! \current_pc[5]~28\ $end
$var wire 1 E! \current_pc[6]~29_combout\ $end
$var wire 1 F! \jump_to_address[7]~input_o\ $end
$var wire 1 G! \Add0~7_combout\ $end
$var wire 1 H! \current_pc[6]~30\ $end
$var wire 1 I! \current_pc[7]~31_combout\ $end
$var wire 1 J! \jump_to_address[8]~input_o\ $end
$var wire 1 K! \Add0~8_combout\ $end
$var wire 1 L! \current_pc[7]~32\ $end
$var wire 1 M! \current_pc[8]~33_combout\ $end
$var wire 1 N! \jump_to_address[9]~input_o\ $end
$var wire 1 O! \Add0~9_combout\ $end
$var wire 1 P! \current_pc[8]~34\ $end
$var wire 1 Q! \current_pc[9]~35_combout\ $end
$var wire 1 R! \jump_to_address[10]~input_o\ $end
$var wire 1 S! \Add0~10_combout\ $end
$var wire 1 T! \current_pc[9]~36\ $end
$var wire 1 U! \current_pc[10]~37_combout\ $end
$var wire 1 V! \jump_to_address[11]~input_o\ $end
$var wire 1 W! \Add0~11_combout\ $end
$var wire 1 X! \current_pc[10]~38\ $end
$var wire 1 Y! \current_pc[11]~39_combout\ $end
$var wire 1 Z! \jump_to_address[12]~input_o\ $end
$var wire 1 [! \Add0~12_combout\ $end
$var wire 1 \! \current_pc[11]~40\ $end
$var wire 1 ]! \current_pc[12]~41_combout\ $end
$var wire 1 ^! \jump_to_address[13]~input_o\ $end
$var wire 1 _! \Add0~13_combout\ $end
$var wire 1 `! \current_pc[12]~42\ $end
$var wire 1 a! \current_pc[13]~43_combout\ $end
$var wire 1 b! \jump_to_address[14]~input_o\ $end
$var wire 1 c! \Add0~14_combout\ $end
$var wire 1 d! \current_pc[13]~44\ $end
$var wire 1 e! \current_pc[14]~45_combout\ $end
$var wire 1 f! \jump_to_address[15]~input_o\ $end
$var wire 1 g! \Add0~15_combout\ $end
$var wire 1 h! \current_pc[14]~46\ $end
$var wire 1 i! \current_pc[15]~47_combout\ $end
$var wire 1 j! current_pc [15] $end
$var wire 1 k! current_pc [14] $end
$var wire 1 l! current_pc [13] $end
$var wire 1 m! current_pc [12] $end
$var wire 1 n! current_pc [11] $end
$var wire 1 o! current_pc [10] $end
$var wire 1 p! current_pc [9] $end
$var wire 1 q! current_pc [8] $end
$var wire 1 r! current_pc [7] $end
$var wire 1 s! current_pc [6] $end
$var wire 1 t! current_pc [5] $end
$var wire 1 u! current_pc [4] $end
$var wire 1 v! current_pc [3] $end
$var wire 1 w! current_pc [2] $end
$var wire 1 x! current_pc [1] $end
$var wire 1 y! current_pc [0] $end
$upscope $end
$upscope $end
$enddefinitions $end
#0
$dumpvars
0#
0D
1E
xF
1G
1H
1I
1J
1K
1L
0M
0t
0u
0v
0w
0x
0y
0z
0{
0|
0}
0~
0!!
0"!
0#!
0$!
0%!
0&!
0'!
0(!
0)!
1*!
1+!
1,!
1-!
0.!
0/!
00!
01!
02!
03!
14!
05!
06!
07!
08!
09!
0:!
0;!
1<!
0=!
0>!
0?!
0@!
0A!
0B!
0C!
1D!
0E!
0F!
0G!
0H!
0I!
0J!
0K!
1L!
0M!
0N!
0O!
0P!
0Q!
0R!
0S!
1T!
0U!
0V!
0W!
0X!
0Y!
0Z!
0[!
1\!
0]!
0^!
0_!
0`!
0a!
0b!
0c!
1d!
0e!
0f!
0g!
0h!
0i!
0!
1"
0$
0%
0&
0'
0(
0)
0*
0+
0,
0-
0.
0/
00
01
02
03
0N
0O
0P
0Q
0R
0S
0T
0U
0V
0W
0X
0Y
0Z
0[
0\
0]
0^
1_
0`
0a
0b
0c
0d
0e
0f
0g
0h
0i
0j
0k
0l
0m
0n
0o
0j!
0k!
0l!
0m!
0n!
0o!
0p!
0q!
0r!
0s!
0t!
0u!
0v!
0w!
0x!
0y!
1p
1q
1r
0s
04
05
06
07
08
09
0:
0;
0<
0=
0>
0?
0@
0A
0B
0C
$end
#100000
1#
1M
1&!
1s
1'!
1y!
0+!
10!
11!
1t
1o
1C
#200000
0#
0M
0&!
0s
0'!
#300000
1#
1M
1&!
1s
1'!
0y!
1x!
01!
04!
1+!
00!
11!
14!
15!
1u
0t
05!
1n
0o
0C
1B
#400000
0#
1!
0"
11
12
13
0M
0_
1^
1]
1\
1[
12!
1.!
1(!
1)!
0,!
0&!
0s
1/!
13!
15!
01!
04!
0'!
05!
18!
19!
#500000
1#
1M
1&!
1s
1'!
1y!
0x!
1v!
09!
0<!
11!
14!
0+!
10!
01!
04!
15!
08!
1=!
1w
0u
1t
19!
1<!
05!
18!
1l
0n
1o
1C
0B
1@
09!
0<!
0=!
1=!
#600000
0#
01
1$
1%
1&
1'
1(
1)
1*
1+
1,
1-
1.
1/
10
0M
0[
1Z
1Y
1X
1W
1V
1U
1T
1S
1R
1Q
1P
1O
1N
1f!
1b!
1^!
1Z!
1V!
1R!
1N!
1J!
1F!
1B!
1>!
1:!
16!
02!
0&!
0s
03!
17!
1;!
1?!
1C!
1G!
1K!
1O!
1S!
1W!
1[!
1_!
1c!
1g!
1i!
1e!
1a!
1]!
1Y!
1U!
1Q!
1M!
1I!
1E!
1A!
0=!
1@!
19!
15!
08!
0'!
09!
0A!
0D!
0E!
1H!
0I!
0L!
0M!
1P!
0Q!
0T!
0U!
1X!
0Y!
0\!
0]!
1`!
0a!
0d!
0e!
1h!
0i!
#700000
1#
1M
1&!
1s
1'!
0y!
1w!
0v!
19!
1<!
05!
18!
1+!
00!
11!
14!
09!
0<!
1=!
0@!
0w
1v
0t
1A!
1D!
0=!
1@!
15!
08!
0l
1m
0o
0C
1A
0@
19!
1<!
0A!
0D!
1E!
0H!
1I!
1L!
0E!
1H!
1=!
0@!
1A!
1D!
0I!
0L!
1M!
0P!
1Q!
1T!
0M!
1P!
1E!
0H!
1I!
1L!
0Q!
0T!
1U!
0X!
1Y!
1\!
0U!
1X!
1M!
0P!
1Q!
1T!
0Y!
0\!
1]!
0`!
1a!
1d!
0]!
1`!
1U!
0X!
1Y!
1\!
0a!
0d!
1e!
0h!
1i!
0e!
1h!
1]!
0`!
1a!
1d!
0i!
1e!
0h!
1i!
#760000
0$
0%
0&
0'
0(
0)
0*
0+
0,
0-
0.
0/
00
02
03
0]
0\
0Z
0Y
0X
0W
0V
0U
0T
0S
0R
0Q
0P
0O
0N
0f!
0b!
0^!
0Z!
0V!
0R!
0N!
0J!
0F!
0B!
0>!
0:!
06!
0.!
0(!
0*!
0/!
07!
0;!
0?!
0C!
0G!
0K!
0O!
0S!
0W!
0[!
0_!
0c!
0g!
0i!
0e!
0a!
0]!
0Y!
0U!
0Q!
0M!
0I!
0E!
0A!
0=!
09!
01!
0+!
#800000
0#
0M
0&!
0s
0'!
#820000
0!
0^
0)!
1*!
0-!
1+!
#900000
1#
1M
1&!
1s
1'!
